<?xml version="1.0" encoding="UTF-8" standalone="no"?>
<svg
   height="48"
   width="48"
   version="1.1"
   viewBox="0 0 45 45"
   xmlns="http://www.w3.org/2000/svg"
>
  <circle
     cx="22.5"
     cy="22.5"
     r="20.658"
     fill="#4444ff"
/>
</svg>
